{
	"parent": "block/note_block",
	"textures": {
		"north": "jasonyundt_ytpmvblocks:block/stop_sign_note_block",
		"south": "jasonyundt_ytpmvblocks:block/stop_sign_note_block",
		"east": "jasonyundt_ytpmvblocks:block/stop_sign_note_block",
		"west": "jasonyundt_ytpmvblocks:block/stop_sign_note_block"
	}
}